Ethiopia
…
##SET UP

library(tidyverse)
library(ggplot2)
library(haven)
library(broom)

Read the file

data1 <- read_spss("data1ethiopia.sav")
data1

# A tibble: 2,378 × 375
   RESPNO  URBRUR   REGION     EA_SV…¹ EA_SV…² EA_SV…³ EA_SV…⁴ EA_SV…⁵
   <chr>   <dbl+lb> <dbl+lbl>  <dbl+l> <dbl+l> <dbl+l> <dbl+l> <dbl+l>
 1 ETH0001 1 [Urba… 1342 [Amh… 1 [Yes] 1 [Yes] 1 [Yes] 1 [Yes] 1 [Yes]
 2 ETH0002 2 [Rura… 1342 [Amh… 0 [No]  0 [No]  0 [No]  1 [Yes] 0 [No] 
 3 ETH0003 2 [Rura… 1343 [Oro… 0 [No]  1 [Yes] 0 [No]  1 [Yes] 0 [No] 
 4 ETH0004 2 [Rura… 1342 [Amh… 0 [No]  1 [Yes] 0 [No]  1 [Yes] 0 [No] 
 5 ETH0005 1 [Urba… 1342 [Amh… 1 [Yes] 1 [Yes] 1 [Yes] 1 [Yes] 1 [Yes]
 6 ETH0006 2 [Rura… 1343 [Oro… 0 [No]  1 [Yes] 0 [No]  1 [Yes] 0 [No] 
 7 ETH0007 2 [Rura… 1342 [Amh… 0 [No]  0 [No]  0 [No]  1 [Yes] 0 [No] 
 8 ETH0008 2 [Rura… 1343 [Oro… 0 [No]  0 [No]  0 [No]  1 [Yes] 0 [No] 
 9 ETH0009 2 [Rura… 1342 [Amh… 0 [No]  1 [Yes] 0 [No]  1 [Yes] 0 [No] 
10 ETH0010 2 [Rura… 1344 [Som… 0 [No]  0 [No]  0 [No]  1 [Yes] 0 [No] 
# … with 2,368 more rows, 367 more variables: EA_FAC_A <dbl+lbl>,
#   EA_FAC_B <dbl+lbl>, EA_FAC_C <dbl+lbl>, EA_FAC_D <dbl+lbl>,
#   EA_FAC_E <dbl+lbl>, EA_FAC_F <dbl+lbl>, EA_FAC_G <dbl+lbl>,
#   EA_SEC_A <dbl+lbl>, EA_SEC_B <dbl+lbl>, EA_SEC_C <dbl+lbl>,
#   EA_SEC_D <dbl+lbl>, EA_SEC_E <dbl+lbl>, EA_ROAD_A <dbl+lbl>,
#   EA_ROAD_B <dbl+lbl>, EA_ROAD_C <dbl+lbl>, NOCALL_1 <dbl+lbl>,
#   NOCALL_1OTHER <chr>, NOCALL_2 <dbl+lbl>, NOCALL_3 <dbl+lbl>, …
…
selected_data1 |>
  select(Freedom, REGION, Age, gender,tribe, Home_Language, Urban, MTongueComfort, CulturalComfort, Interview_Language, age_group, ethnic_discrimination)

# A tibble: 2,184 × 12
   Freedom REGION     Age   gender tribe Home_…¹ Urban MTong…² Cultu…³
   <dbl+l> <dbl+lbl>  <dbl> <chr>  <chr> <chr>   <chr> <dbl+l> <chr>  
 1 3 [Som… 1342 [Amh… 27    0      Amha… Amharic 1     1 [Yes] Yes    
 2 3 [Som… 1342 [Amh… 66    0      Amha… Amharic 0     1 [Yes] Yes    
 3 2 [Not… 1343 [Oro… 25    1      Oromo Oromif… 0     1 [Yes] Yes    
 4 4 [Com… 1342 [Amh… 20    1      Amha… Amharic 0     1 [Yes] Yes    
 5 3 [Som… 1342 [Amh… 19    1      Amha… Amharic 1     1 [Yes] Yes    
 6 3 [Som… 1343 [Oro… 25    0      Oromo Oromif… 0     1 [Yes] Yes    
 7 3 [Som… 1342 [Amh… 42    1      Amha… Amharic 0     1 [Yes] Yes    
 8 3 [Som… 1343 [Oro… 24    0      Oromo Oromif… 0     1 [Yes] Yes    
 9 4 [Com… 1342 [Amh… 36    0      Amha… Amharic 0     1 [Yes] Yes    
10 3 [Som… 1344 [Som… 62    1      Soma… Somali… 0     7 [Not… No     
# … with 2,174 more rows, 3 more variables: Interview_Language <chr>,
#   age_group <chr>, ethnic_discrimination <chr>, and abbreviated
#   variable names ¹​Home_Language, ²​MTongueComfort, ³​CulturalComfort
…
Tigre
127

Welayta
55

##Comparing Ethnicity and freedom response
This plot summarizes the main dependent variable which is rating of average freedom.

mean_Freedom_by_tribe <-selected_data1 |>
  group_by(tribe)|>
  summarize(mean_Freedom = mean(Freedom))
mean_Freedom_by_tribe

# A tibble: 25 × 2
   tribe     mean_Freedom
   <chr>            <dbl>
 1 Agew              3.05
 2 Agnawak           2.45
 3 Amhara            3.13
 4 Bench             3.47
 5 Berta             3.08
 6 Ethiopian         3.27
 7 Gamo              2.81
 8 Gedeo             3.38
 9 Gofa              3   
10 Gumuz             3.19
# … with 15 more rows
…
mean_Freedom_by_tribe

# A tibble: 25 × 2
   tribe     mean_Freedom
   <chr>            <dbl>
 1 Agew              3.05
 2 Agnawak           2.45
 3 Amhara            3.13
 4 Bench             3.47
 5 Berta             3.08
 6 Ethiopian         3.27
 7 Gamo              2.81
 8 Gedeo             3.38
 9 Gofa              3   
10 Gumuz             3.19
# … with 15 more rows
…
Average Rating of Freedom for Rural Somalis

2.848214

Overall, from the 4 major tribes I looked at, it looks like individuals who rated higher levels of freedom of speech were in rural communities in comparison to those in urban communities.

##Age count of ethiopians

agecount <- selected_data1 |>
  group_by(Age) |>
  summarize(count = n())
agecount

# A tibble: 67 × 2
   Age       count
   <dbl+lbl> <int>
 1 18           67
 2 19           60
 3 20           91
 4 21           33
 5 22           92
 6 23           58
 7 24           47
 8 25          136
 9 26           50
10 27           65
# … with 57 more rows

How does the average rating of freedom of speech vary across age

age_rating <- selected_data1 |>
  group_by(Age) |>
  summarize("Average Rating of Freedom of Speech" = mean(Freedom))
age_rating

# A tibble: 67 × 2
   Age       `Average Rating of Freedom of Speech`
   <dbl+lbl>                                 <dbl>
 1 18                                         3   
 2 19                                         3.08
 3 20                                         3.01
 4 21                                         3   
 5 22                                         2.99
 6 23                                         3.07
 7 24                                         2.94
 8 25                                         3.05
 9 26                                         3.02
10 27                                         3.26
# … with 57 more rows
…
What is the average rating of freedom of speech when an individual’s home language is the same as the language used in the interview?

It appears that the average rating of freedom of speech is higher (3.18) when the home language of the respondent does not match the language used in the interview than the average rating of freedom of speech when the home language and the interview language was the same (3.08). It also appears those who are rural appear to rate their freedom of speech higher than those who are urban. This has found to be true to other analysis done above as well.

language__match <- selected_data1 |>
  mutate(languagematch = if_else(Home_Language == Interview_Language, "1", "0", missing = NULL))
language__match

# A tibble: 2,184 × 17
   RESPNO  Freedom   REGION     Gender  Tribe      Home_…¹ Age   Urban
   <chr>   <dbl+lbl> <dbl+lbl>  <dbl+l> <dbl+lbl>  <chr>   <dbl> <chr>
 1 ETH0001 3 [Somew… 1342 [Amh… 1 [Mal… 1341 [Amh… Amharic 27    1    
 2 ETH0002 3 [Somew… 1342 [Amh… 1 [Mal… 1341 [Amh… Amharic 66    0    
 3 ETH0003 2 [Not v… 1343 [Oro… 2 [Fem… 1340 [Oro… Oromif… 25    0    
 4 ETH0004 4 [Compl… 1342 [Amh… 2 [Fem… 1341 [Amh… Amharic 20    0    
 5 ETH0005 3 [Somew… 1342 [Amh… 2 [Fem… 1341 [Amh… Amharic 19    1    
 6 ETH0006 3 [Somew… 1343 [Oro… 1 [Mal… 1340 [Oro… Oromif… 25    0    
 7 ETH0007 3 [Somew… 1342 [Amh… 2 [Fem… 1341 [Amh… Amharic 42    0    
 8 ETH0008 3 [Somew… 1343 [Oro… 1 [Mal… 1340 [Oro… Oromif… 24    0    
 9 ETH0009 4 [Compl… 1342 [Amh… 1 [Mal… 1341 [Amh… Amharic 36    0    
10 ETH0010 3 [Somew… 1344 [Som… 2 [Fem… 1342 [Som… Somali… 62    0    
# … with 2,174 more rows, 9 more variables: MTongueComfort <dbl+lbl>,
#   CulturalComfort <chr>, Interview_Language <chr>,
#   ethnic_discrimination <chr>, MotherTongue <chr>, tribe <chr>,
#   gender <chr>, age_group <chr>, languagematch <chr>, and
#   abbreviated variable name ¹​Home_Language
…
Residual standard error: 1.019 on 2159 degrees of freedom
Multiple R-squared:  0.03059,   Adjusted R-squared:  0.01981 
F-statistic: 2.838 on 24 and 2159 DF,  p-value: 5.36e-06

Subsetting for the 4 major ethnic groups

subset_final_data <- selected_data1 |>
  filter(tribe %in% c("Amhara", "Oromo", "Tigre", "Somali"))
subset_final_data

# A tibble: 1,661 × 16
   RESPNO  Freedom   REGION     Gender  Tribe      Home_…¹ Age   Urban
   <chr>   <dbl+lbl> <dbl+lbl>  <dbl+l> <dbl+lbl>  <chr>   <dbl> <chr>
 1 ETH0001 3 [Somew… 1342 [Amh… 1 [Mal… 1341 [Amh… Amharic 27    1    
 2 ETH0002 3 [Somew… 1342 [Amh… 1 [Mal… 1341 [Amh… Amharic 66    0    
 3 ETH0003 2 [Not v… 1343 [Oro… 2 [Fem… 1340 [Oro… Oromif… 25    0    
 4 ETH0004 4 [Compl… 1342 [Amh… 2 [Fem… 1341 [Amh… Amharic 20    0    
 5 ETH0005 3 [Somew… 1342 [Amh… 2 [Fem… 1341 [Amh… Amharic 19    1    
 6 ETH0006 3 [Somew… 1343 [Oro… 1 [Mal… 1340 [Oro… Oromif… 25    0    
 7 ETH0007 3 [Somew… 1342 [Amh… 2 [Fem… 1341 [Amh… Amharic 42    0    
 8 ETH0008 3 [Somew… 1343 [Oro… 1 [Mal… 1340 [Oro… Oromif… 24    0    
 9 ETH0009 4 [Compl… 1342 [Amh… 1 [Mal… 1341 [Amh… Amharic 36    0    
10 ETH0010 3 [Somew… 1344 [Som… 2 [Fem… 1342 [Som… Somali… 62    0    
# … with 1,651 more rows, 8 more variables: MTongueComfort <dbl+lbl>,
#   CulturalComfort <chr>, Interview_Language <chr>,
#   ethnic_discrimination <chr>, MotherTongue <chr>, tribe <chr>,
#   gender <chr>, age_group <chr>, and abbreviated variable name
#   ¹​Home_Language
…
